%YAML 1.1
%TAG !u! tag:unity3d.com,2011:
--- !u!114 &11400000
MonoBehaviour:
  m_ObjectHideFlags: 0
  m_CorrespondingSourceObject: {fileID: 0}
  m_PrefabInstance: {fileID: 0}
  m_PrefabAsset: {fileID: 0}
  m_GameObject: {fileID: 0}
  m_Enabled: 1
  m_EditorHideFlags: 0
  m_Script: {fileID: 11500000, guid: f48b8f25262b9f84884b7c4577efc616, type: 3}
  m_Name: Question 2
  m_EditorClassIdentifier: 
  question: What is the name of the main protagonist of Yakuza 0?
  answers:
  - Akira Nishikiyama
  - Kiryu Kazuma
  - Daisaku Kuze
  - Tetsu Tachibana
  correctAnswerIndex: 1
